…
Structure of competition results
--------------------------------

All functions in `comperank` expect competition results in one of the formats from `comperes` package. That is either **long** or **wide** format.

**Long format** is the most abstract way of presenting competition results. Basically, it is a data frame (or tibble) with columns `game` (game identifier), `player` (player identifier) and `score` where *each row represents the score of particular player in particular game*. One game can consist from **variable** number of players which makes this format more usable. Inside a game all players are treated equally.

Programmatically long format is represented with `longcr` S3 class which should be created with `as_longcr()` function from `comperes`.

For examples we will use `ncaa2005` data set from `comperes` package, which is already of `longcr` class. It is an example competition results of an isolated group of Atlantic Coast Conference teams provided in book **"Who's \#1"**:

``` r
ncaa2005
#> # A longcr object:
#> # A tibble: 20 x 3
#>    game player score
#>   <int> <chr>  <int>
#> 1     1 Duke       7
#> 2     1 Miami     52
#> 3     2 Duke      21
#> 4     2 UNC       24
#> 5     3 Duke       7
#> 6     3 UVA       38
#> # ... with 14 more rows
```

**Wide format** is a more convenient way to store results with **fixed** number of players in a game. *Each row represents scores of all players in particular game*. Data should be organized in pairs of columns "player"-"score". Identifier of a pair should go after respective keyword and consist only from digits. For example: `player1`, `score1`, `player2`, `score2`. Order doesn't matter. Column `game` is optional.

Programmatically wide format is represented with `widecr` S3 class which should be created with `as_widecr()` function from `comperes`:

``` r
comperes::as_widecr(ncaa2005)
#> # A widecr object:
#> # A tibble: 10 x 5
#>    game player1 score1 player2 score2
#>   <int> <chr>    <int> <chr>    <int>
#> 1     1 Duke         7 Miami       52
#> 2     2 Duke        21 UNC         24
#> 3     3 Duke         7 UVA         38
#> 4     4 Duke         0 VT          45
#> 5     5 Miami       34 UNC         16
#> 6     6 Miami       25 UVA         17
#> # ... with 4 more rows
```
…
h2h_funs[1:3]
#> $mean_score_diff
#> mean(score1 - score2)
#> 
#> $mean_score_diff_pos
#> max(mean(score1 - score2), 0)
#> 
#> $mean_score
#> mean(score1)

# Computing Head-to-Head values with unquoting
comperes::h2h_long(ncaa2005, !!! h2h_funs)
#> # A long format of Head-to-Head values:
#> # A tibble: 25 x 11
#>   player1 player2 mean_score_diff mean_score_diff_pos mean_score
#>   <chr>   <chr>             <dbl>               <dbl>      <dbl>
#> 1 Duke    Duke                  0                   0       8.75
#> 2 Duke    Miami               -45                   0       7   
#> 3 Duke    UNC                  -3                   0      21   
#> 4 Duke    UVA                 -31                   0       7   
#> 5 Duke    VT                  -45                   0       0   
#> 6 Miami   Duke                 45                  45      52   
#>   sum_score_diff sum_score_diff_p… sum_score
#>            <int>             <dbl>     <int>
#> 1              0                 0        35
#> 2            -45                 0         7
#> 3             -3                 0        21
#> 4            -31                 0         7
#> 5            -45                 0         0
#> 6             45                45        52
#> # ... with 19 more rows, and 3 more variables: num_wins <dbl>,
#> #   num_wins2 <dbl>, num <int>
…
All functions assume that the order in which games were played is identical to order of values in column `game` (if present) or is defined by the row order.

Arguably, the most useful function is `add_iterative_ratings()`, which adds to `widecr` format of competition results information about game ratings before and after the game.

`rate_iterative()` and `rank_iterative()` return ratings after the last game.

``` r
# Adds 1 to winner's rating and subtracts 1 from loser's rating
test_rate_fun <- function(rating1, score1, rating2, score2) {
  c(rating1, rating2) + ((score1 >= score2) * 2 - 1) * c(1, -1)
}
add_iterative_ratings(ncaa2005, test_rate_fun)
#> # A widecr object:
#> # A tibble: 10 x 9
#>    game player1 score1 player2 score2 rating1Before rating2Before
#>   <int> <chr>    <int> <chr>    <int>         <dbl>         <dbl>
#> 1     1 Duke         7 Miami       52             0             0
#> 2     2 Duke        21 UNC         24            -1             0
#> 3     3 Duke         7 UVA         38            -2             0
#> 4     4 Duke         0 VT          45            -3             0
#> 5     5 Miami       34 UNC         16             1             1
#> 6     6 Miami       25 UVA         17             2             1
#>   rating1After rating2After
#>          <dbl>        <dbl>
#> 1           -1            1
#> 2           -2            1
#> 3           -3            1
#> 4           -4            1
#> 5            2            0
#> 6            3            0
#> # ... with 4 more rows

# Revert the order of games
ncaa2005_rev <- ncaa2005
ncaa2005_rev$game <- 11 - ncaa2005_rev$game
add_iterative_ratings(ncaa2005_rev, test_rate_fun)
#> # A widecr object:
#> # A tibble: 10 x 9
#>    game player1 score1 player2 score2 rating1Before rating2Before
#>   <dbl> <chr>    <int> <chr>    <int>         <dbl>         <dbl>
#> 1     1 UVA         14 VT          52             0             0
#> 2     2 UNC          3 VT          30             0             1
#> 3     3 UNC          7 UVA          5            -1            -1
#> 4     4 Miami       27 VT           7             0             2
#> 5     5 Miami       25 UVA         17             1            -2
#> 6     6 Miami       34 UNC         16             2             0
#>   rating1After rating2After
#>          <dbl>        <dbl>
#> 1           -1            1
#> 2           -1            2
#> 3            0           -2
#> 4            1            1
#> 5            2           -3
#> 6            3           -1
#> # ... with 4 more rows
…
### Elo method

Elo method is, basically, an iterative rating method with fixed [Elo](https://en.wikipedia.org/wiki/Elo_rating_system) rating function. General idea is that rating increase for winner should be the bigger the more is rating difference between players. In other words, win over a better player should lead to more rating increase and win over a considerably weaker player shouldn't affect rating that much.

``` r
add_elo_ratings(ncaa2005)
#> # A widecr object:
#> # A tibble: 10 x 9
#>    game player1 score1 player2 score2 rating1Before rating2Before
#>   <int> <chr>    <int> <chr>    <int>         <dbl>         <dbl>
#> 1     1 Duke         7 Miami       52           0             0  
#> 2     2 Duke        21 UNC         24         -15             0  
#> 3     3 Duke         7 UVA         38         -29.4           0  
#> 4     4 Duke         0 VT          45         -43.1           0  
#> 5     5 Miami       34 UNC         16          15            14.4
#> 6     6 Miami       25 UVA         17          30.0          13.7
#>   rating1After rating2After
#>          <dbl>        <dbl>
#> 1        -15         15    
#> 2        -29.4       14.4  
#> 3        -43.1       13.7  
#> 4        -56.2       13.1  
#> 5         30.0       -0.619
#> 6         44.3       -0.564
#> # ... with 4 more rows
add_elo_ratings(ncaa2005_rev)
#> # A widecr object:
#> # A tibble: 10 x 9
#>    game player1 score1 player2 score2 rating1Before rating2Before
#>   <dbl> <chr>    <int> <chr>    <int>         <dbl>         <dbl>
#> 1     1 UVA         14 VT          52           0           0    
#> 2     2 UNC          3 VT          30           0          15    
#> 3     3 UNC          7 UVA          5         -14.4       -15    
#> 4     4 Miami       27 VT           7           0          29.4  
#> 5     5 Miami       25 UVA         17          16.3       -30.0  
#> 6     6 Miami       34 UNC         16          29.3         0.619
#>   rating1After rating2After
#>          <dbl>        <dbl>
#> 1      -15             15  
#> 2      -14.4           29.4
#> 3        0.619        -30.0
#> 4       16.3           13.1
#> 5       29.3          -43.0
#> 6       43.0          -13.1
#> # ... with 4 more rows
…
