Methods Overview • comperes
…
h2h_funs[1:3]
#> $mean_score_diff
#> mean(score1 - score2)
#> 
#> $mean_score_diff_pos
#> max(mean(score1 - score2), 0)
#> 
#> $mean_score
#> mean(score1)

# Computing Head-to-Head values with unquoting
comperes::h2h_long(ncaa2005, !!! h2h_funs)
#> # A long format of Head-to-Head values:
#> # A tibble: 25 x 11
#>    player1 player2 mean_score_diff mean_score_diff_pos mean_score
#>    <chr>   <chr>             <dbl>               <dbl>      <dbl>
#>  1 Duke    Duke                  0                   0       8.75
#>  2 Duke    Miami               -45                   0       7   
#>  3 Duke    UNC                  -3                   0      21   
#>  4 Duke    UVA                 -31                   0       7   
#>  5 Duke    VT                  -45                   0       0   
#>  6 Miami   Duke                 45                  45      52   
#>  7 Miami   Miami                 0                   0      34.5 
#>  8 Miami   UNC                  18                  18      34   
#>  9 Miami   UVA                   8                   8      25   
#> 10 Miami   VT                   20                  20      27   
#> # ... with 15 more rows, and 6 more variables: sum_score_diff <int>,
#> #   sum_score_diff_pos <dbl>, sum_score <int>, num_wins <dbl>,
#> #   num_wins2 <dbl>, num <int>
…
